module gitlab-runner-group-releaser

go 1.19

require (
	github.com/goccy/go-yaml v1.9.8
	github.com/rs/zerolog v1.28.0
	github.com/samber/lo v1.37.0
	github.com/sourcegraph/conc v0.2.0
	github.com/spf13/cobra v1.6.1
	github.com/stretchr/testify v1.8.1
	github.com/xanzy/go-gitlab v0.79.0
	gitlab.com/gitlab-org/ci-cd/runner-tools/gitlab-changelog v0.6.1-0.20230315112357-248e22540be0
	golang.org/x/mod v0.7.0
	golang.org/x/sync v0.1.0
)

require (
	github.com/cockroachdb/errors v1.9.0 // indirect
	github.com/cockroachdb/logtags v0.0.0-20211118104740-dabe8e521a4f // indirect
	github.com/cockroachdb/redact v1.1.3 // indirect
	github.com/davecgh/go-spew v1.1.1 // indirect
	github.com/fatih/color v1.14.1 // indirect
	github.com/getsentry/sentry-go v0.13.0 // indirect
	github.com/gogo/protobuf v1.3.2 // indirect
	github.com/golang/protobuf v1.5.2 // indirect
	github.com/google/go-cmp v0.5.9 // indirect
	github.com/google/go-querystring v1.1.0 // indirect
	github.com/hashicorp/go-cleanhttp v0.5.2 // indirect
	github.com/hashicorp/go-hclog v1.2.0 // indirect
	github.com/hashicorp/go-retryablehttp v0.7.1 // indirect
	github.com/inconshreveable/mousetrap v1.1.0 // indirect
	github.com/juliangruber/go-intersect v1.0.1-0.20191008103957-64ef44ecb041 // indirect
	github.com/konsorten/go-windows-terminal-sequences v1.0.1 // indirect
	github.com/kr/pretty v0.3.0 // indirect
	github.com/kr/text v0.2.0 // indirect
	github.com/mattn/go-colorable v0.1.13 // indirect
	github.com/mattn/go-isatty v0.0.17 // indirect
	github.com/pkg/errors v0.9.1 // indirect
	github.com/pmezard/go-difflib v1.0.0 // indirect
	github.com/rogpeppe/go-internal v1.9.0 // indirect
	github.com/sirupsen/logrus v1.4.2 // indirect
	github.com/sourcegraph/sourcegraph/lib v0.0.0-20221216004406-749998a2ac74 // indirect
	github.com/spf13/pflag v1.0.5 // indirect
	github.com/stretchr/objx v0.5.0 // indirect
	golang.org/x/crypto v0.0.0-20220525230936-793ad666bf5e // indirect
	golang.org/x/exp v0.0.0-20220303212507-bbda1eaf7a17 // indirect
	golang.org/x/net v0.4.0 // indirect
	golang.org/x/oauth2 v0.3.0 // indirect
	golang.org/x/sys v0.5.0 // indirect
	golang.org/x/time v0.3.0 // indirect
	golang.org/x/xerrors v0.0.0-20220907171357-04be3eba64a2 // indirect
	google.golang.org/appengine v1.6.7 // indirect
	google.golang.org/protobuf v1.28.1 // indirect
	gopkg.in/yaml.v2 v2.4.0 // indirect
	gopkg.in/yaml.v3 v3.0.1 // indirect
)
